Iterations        : 25000
Resolution        : 256
Num. Heat sources : 2
   1: (0.00, 0.00) 1.00 2.50 
   2: (0.50, 1.00) 1.00 2.50 

Execution on CPU (sequential)
-----------------------------
Time on CPU in ms.= 5785.257324 (11.464 GFlop => 1981.53 MFlop/s)
Convergence to residual=0.000050: 15902 iterations

Execution on GPU
----------------

Time on GPU in ms. = 7222.954590 (11.464 GFlop => 1587.12 MFlop/s)
Convergence to residual=0.000050: 15902 iterations
