Iterations        : 25000
Resolution        : 256
Algorithm         : 2 (Gauss-Seidel)
Num. Heat sources : 2
   1: (0.00, 0.00) 1.00 2.50 
   2: (0.50, 1.00) 1.00 2.50 
Time: 6.476 (9.049 GFlop => 1397.34 MFlop/s)
Convergence to residual=0.000050: 12552 iterations
Iterations        : 25000
Resolution        : 256
Algorithm         : 2 (Gauss-Seidel)
Num. Heat sources : 2
   1: (0.00, 0.00) 1.00 2.50 
   2: (0.50, 1.00) 1.00 2.50 
Time: 4.370 (9.049 GFlop => 2070.82 MFlop/s)
Convergence to residual=0.000050: 12552 iterations
Iterations        : 25000
Resolution        : 256
Algorithm         : 2 (Gauss-Seidel)
Num. Heat sources : 2
   1: (0.00, 0.00) 1.00 2.50 
   2: (0.50, 1.00) 1.00 2.50 
Time: 3.823 (9.049 GFlop => 2366.96 MFlop/s)
Convergence to residual=0.000050: 12552 iterations
Iterations        : 25000
Resolution        : 256
Algorithm         : 2 (Gauss-Seidel)
Num. Heat sources : 2
   1: (0.00, 0.00) 1.00 2.50 
   2: (0.50, 1.00) 1.00 2.50 
Time: 3.709 (9.049 GFlop => 2439.98 MFlop/s)
Convergence to residual=0.000050: 12552 iterations
Iterations        : 25000
Resolution        : 256
Algorithm         : 2 (Gauss-Seidel)
Num. Heat sources : 2
   1: (0.00, 0.00) 1.00 2.50 
   2: (0.50, 1.00) 1.00 2.50 
Time: 3.692 (9.049 GFlop => 2450.85 MFlop/s)
Convergence to residual=0.000050: 12552 iterations
Iterations        : 25000
Resolution        : 256
Algorithm         : 2 (Gauss-Seidel)
Num. Heat sources : 2
   1: (0.00, 0.00) 1.00 2.50 
   2: (0.50, 1.00) 1.00 2.50 
Time: 3.860 (9.049 GFlop => 2344.49 MFlop/s)
Convergence to residual=0.000050: 12552 iterations
