Iterations        : 25000
Resolution        : 256
Algorithm         : 0 (Jacobi)
Num. Heat sources : 2
   1: (0.00, 0.00) 1.00 2.50 
   2: (0.50, 1.00) 1.00 2.50 
Time: 4.343 (11.463 GFlop => 2639.23 MFlop/s)
Convergence to residual=0.000050: 15901 iterations
Iterations        : 25000
Resolution        : 256
Algorithm         : 0 (Jacobi)
Num. Heat sources : 2
   1: (0.00, 0.00) 1.00 2.50 
   2: (0.50, 1.00) 1.00 2.50 
Time: 4.172 (11.463 GFlop => 2747.44 MFlop/s)
Convergence to residual=0.000050: 15901 iterations
Iterations        : 25000
Resolution        : 256
Algorithm         : 0 (Jacobi)
Num. Heat sources : 2
   1: (0.00, 0.00) 1.00 2.50 
   2: (0.50, 1.00) 1.00 2.50 
Time: 3.573 (11.463 GFlop => 3208.32 MFlop/s)
Convergence to residual=0.000050: 15901 iterations
Iterations        : 25000
Resolution        : 256
Algorithm         : 0 (Jacobi)
Num. Heat sources : 2
   1: (0.00, 0.00) 1.00 2.50 
   2: (0.50, 1.00) 1.00 2.50 
Time: 3.078 (11.463 GFlop => 3724.24 MFlop/s)
Convergence to residual=0.000050: 15901 iterations
Iterations        : 25000
Resolution        : 256
Algorithm         : 0 (Jacobi)
Num. Heat sources : 2
   1: (0.00, 0.00) 1.00 2.50 
   2: (0.50, 1.00) 1.00 2.50 
Time: 3.151 (11.463 GFlop => 3638.00 MFlop/s)
Convergence to residual=0.000050: 15901 iterations
Iterations        : 25000
Resolution        : 256
Algorithm         : 0 (Jacobi)
Num. Heat sources : 2
   1: (0.00, 0.00) 1.00 2.50 
   2: (0.50, 1.00) 1.00 2.50 
Time: 2.985 (11.463 GFlop => 3840.40 MFlop/s)
Convergence to residual=0.000050: 15901 iterations
