I am worker 3 and ready to receive work to do ...
Process 3 finished computing 12552 iterations with residual value = 0.000012
I am worker 4 and ready to receive work to do ...
Process 4 finished computing 12552 iterations with residual value = 0.000012
I am worker 5 and ready to receive work to do ...
Process 5 finished computing 12552 iterations with residual value = 0.000009
I am worker 6 and ready to receive work to do ...
Process 6 finished computing 12552 iterations with residual value = 0.000004
I am worker 7 and ready to receive work to do ...
Process 7 finished computing 12552 iterations with residual value = 0.000001
I am worker 2 and ready to receive work to do ...
Process 2 finished computing 12552 iterations with residual value = 0.000008
I am worker 1 and ready to receive work to do ...
Process 1 finished computing 12552 iterations with residual value = 0.000004
I am the master (0) and going to distribute work to 7 additional workers ...
Iterations        : 25000
Resolution        : 256
Algorithm         : 2 (Gauss-Seidel)
Num. Heat sources : 2
   1: (0.00, 0.00) 1.00 2.50 
   2: (0.50, 1.00) 1.00 2.50 
Time: 6.702 (9.049 GFlop => 1350.13 MFlop/s)
Convergence to residual=0.000001: 12552 iterations
Process 0 finished computing with residual value = 0.000001
