I am worker 1 and ready to receive work to do ...
Process 1 finished computing 15901 iterations with residual value = 0.000027
I am the master (0) and going to distribute work to 1 additional workers ...
Iterations        : 25000
Resolution        : 256
Algorithm         : 0 (Jacobi)
Num. Heat sources : 2
   1: (0.00, 0.00) 1.00 2.50 
   2: (0.50, 1.00) 1.00 2.50 
Time: 2.914 (11.463 GFlop => 3933.84 MFlop/s)
Convergence to residual=0.000023: 15901 iterations
Process 0 finished computing with residual value = 0.000023
