Iterations        : 25000
Resolution        : 256
Algorithm         : 2 (Gauss-Seidel)
Num. Heat sources : 2
   1: (0.00, 0.00) 1.00 2.50 
   2: (0.50, 1.00) 1.00 2.50 
Time: 6.002 (9.049 GFlop => 1507.59 MFlop/s)
Convergence to residual=0.000050: 12552 iterations
Iterations        : 25000
Resolution        : 256
Algorithm         : 2 (Gauss-Seidel)
Num. Heat sources : 2
   1: (0.00, 0.00) 1.00 2.50 
   2: (0.50, 1.00) 1.00 2.50 
Time: 3.475 (9.049 GFlop => 2604.10 MFlop/s)
Convergence to residual=0.000050: 12552 iterations
Iterations        : 25000
Resolution        : 256
Algorithm         : 2 (Gauss-Seidel)
Num. Heat sources : 2
   1: (0.00, 0.00) 1.00 2.50 
   2: (0.50, 1.00) 1.00 2.50 
Time: 2.852 (9.049 GFlop => 3172.45 MFlop/s)
Convergence to residual=0.000050: 12552 iterations
Iterations        : 25000
Resolution        : 256
Algorithm         : 2 (Gauss-Seidel)
Num. Heat sources : 2
   1: (0.00, 0.00) 1.00 2.50 
   2: (0.50, 1.00) 1.00 2.50 
Time: 2.814 (9.049 GFlop => 3215.37 MFlop/s)
Convergence to residual=0.000050: 12552 iterations
Iterations        : 25000
Resolution        : 256
Algorithm         : 2 (Gauss-Seidel)
Num. Heat sources : 2
   1: (0.00, 0.00) 1.00 2.50 
   2: (0.50, 1.00) 1.00 2.50 
Time: 2.897 (9.049 GFlop => 3123.81 MFlop/s)
Convergence to residual=0.000050: 12552 iterations
Iterations        : 25000
Resolution        : 256
Algorithm         : 2 (Gauss-Seidel)
Num. Heat sources : 2
   1: (0.00, 0.00) 1.00 2.50 
   2: (0.50, 1.00) 1.00 2.50 
Time: 3.149 (9.049 GFlop => 2873.70 MFlop/s)
Convergence to residual=0.000050: 12552 iterations
