Iterations        : 25000
Resolution        : 256
Algorithm         : 0 (Jacobi)
Num. Heat sources : 2
   1: (0.00, 0.00) 1.00 2.50 
   2: (0.50, 1.00) 1.00 2.50 
Time: 6.087 (11.463 GFlop => 1883.28 MFlop/s)
Convergence to residual=0.000050: 15901 iterations
Iterations        : 25000
Resolution        : 256
Algorithm         : 0 (Jacobi)
Num. Heat sources : 2
   1: (0.00, 0.00) 1.00 2.50 
   2: (0.50, 1.00) 1.00 2.50 
Time: 3.726 (11.463 GFlop => 3076.25 MFlop/s)
Convergence to residual=0.000050: 15901 iterations
Iterations        : 25000
Resolution        : 256
Algorithm         : 0 (Jacobi)
Num. Heat sources : 2
   1: (0.00, 0.00) 1.00 2.50 
   2: (0.50, 1.00) 1.00 2.50 
Time: 3.092 (11.463 GFlop => 3707.83 MFlop/s)
Convergence to residual=0.000050: 15901 iterations
Iterations        : 25000
Resolution        : 256
Algorithm         : 0 (Jacobi)
Num. Heat sources : 2
   1: (0.00, 0.00) 1.00 2.50 
   2: (0.50, 1.00) 1.00 2.50 
Time: 2.711 (11.463 GFlop => 4227.57 MFlop/s)
Convergence to residual=0.000050: 15901 iterations
Iterations        : 25000
Resolution        : 256
Algorithm         : 0 (Jacobi)
Num. Heat sources : 2
   1: (0.00, 0.00) 1.00 2.50 
   2: (0.50, 1.00) 1.00 2.50 
Time: 2.563 (11.463 GFlop => 4473.27 MFlop/s)
Convergence to residual=0.000050: 15901 iterations
Iterations        : 25000
Resolution        : 256
Algorithm         : 0 (Jacobi)
Num. Heat sources : 2
   1: (0.00, 0.00) 1.00 2.50 
   2: (0.50, 1.00) 1.00 2.50 
Time: 2.410 (11.463 GFlop => 4756.17 MFlop/s)
Convergence to residual=0.000050: 15901 iterations
