Iterations        : 25000
Resolution        : 256
Algorithm         : 2 (Gauss-Seidel)
Num. Heat sources : 2
   1: (0.00, 0.00) 1.00 2.50 
   2: (0.50, 1.00) 1.00 2.50 
Time: 6.750 (9.049 GFlop => 1340.57 MFlop/s)
Convergence to residual=0.000050: 12552 iterations
Iterations        : 25000
Resolution        : 256
Algorithm         : 2 (Gauss-Seidel)
Num. Heat sources : 2
   1: (0.00, 0.00) 1.00 2.50 
   2: (0.50, 1.00) 1.00 2.50 
Time: 6.748 (9.049 GFlop => 1341.04 MFlop/s)
Convergence to residual=0.000050: 12552 iterations
Iterations        : 25000
Resolution        : 256
Algorithm         : 2 (Gauss-Seidel)
Num. Heat sources : 2
   1: (0.00, 0.00) 1.00 2.50 
   2: (0.50, 1.00) 1.00 2.50 
Time: 6.747 (9.049 GFlop => 1341.06 MFlop/s)
Convergence to residual=0.000050: 12552 iterations
Iterations        : 25000
Resolution        : 256
Algorithm         : 2 (Gauss-Seidel)
Num. Heat sources : 2
   1: (0.00, 0.00) 1.00 2.50 
   2: (0.50, 1.00) 1.00 2.50 
Time: 6.747 (9.049 GFlop => 1341.05 MFlop/s)
Convergence to residual=0.000050: 12552 iterations
Iterations        : 25000
Resolution        : 256
Algorithm         : 2 (Gauss-Seidel)
Num. Heat sources : 2
   1: (0.00, 0.00) 1.00 2.50 
   2: (0.50, 1.00) 1.00 2.50 
Time: 6.756 (9.049 GFlop => 1339.32 MFlop/s)
Convergence to residual=0.000050: 12552 iterations
Iterations        : 25000
Resolution        : 256
Algorithm         : 2 (Gauss-Seidel)
Num. Heat sources : 2
   1: (0.00, 0.00) 1.00 2.50 
   2: (0.50, 1.00) 1.00 2.50 
Time: 6.746 (9.049 GFlop => 1341.38 MFlop/s)
Convergence to residual=0.000050: 12552 iterations
