Iterations        : 25000
Resolution        : 256
Algorithm         : 1 (Red-Black)
Num. Heat sources : 2
   1: (0.00, 0.00) 1.00 2.50 
   2: (0.50, 1.00) 1.00 2.50 
Time: 7.036 (9.049 GFlop => 1286.07 MFlop/s)
Convergence to residual=0.000050: 12553 iterations
Iterations        : 25000
Resolution        : 256
Algorithm         : 1 (Red-Black)
Num. Heat sources : 2
   1: (0.00, 0.00) 1.00 2.50 
   2: (0.50, 1.00) 1.00 2.50 
Time: 7.040 (9.049 GFlop => 1285.43 MFlop/s)
Convergence to residual=0.000050: 12553 iterations
Iterations        : 25000
Resolution        : 256
Algorithm         : 1 (Red-Black)
Num. Heat sources : 2
   1: (0.00, 0.00) 1.00 2.50 
   2: (0.50, 1.00) 1.00 2.50 
Time: 7.037 (9.049 GFlop => 1286.04 MFlop/s)
Convergence to residual=0.000050: 12553 iterations
Iterations        : 25000
Resolution        : 256
Algorithm         : 1 (Red-Black)
Num. Heat sources : 2
   1: (0.00, 0.00) 1.00 2.50 
   2: (0.50, 1.00) 1.00 2.50 
Time: 7.033 (9.049 GFlop => 1286.80 MFlop/s)
Convergence to residual=0.000050: 12553 iterations
Iterations        : 25000
Resolution        : 256
Algorithm         : 2 (Gauss-Seidel)
Num. Heat sources : 2
   1: (0.00, 0.00) 1.00 2.50 
   2: (0.50, 1.00) 1.00 2.50 
Time: 6.746 (9.049 GFlop => 1341.43 MFlop/s)
Convergence to residual=0.000050: 12552 iterations
Iterations        : 25000
Resolution        : 256
Algorithm         : 2 (Gauss-Seidel)
Num. Heat sources : 2
   1: (0.00, 0.00) 1.00 2.50 
   2: (0.50, 1.00) 1.00 2.50 
Time: 6.747 (9.049 GFlop => 1341.08 MFlop/s)
Convergence to residual=0.000050: 12552 iterations
