/var/spool/slurmd/job1243053/slurm_script: line 9: LD_LIBRARY_PATH: command not found

Solving Heat equation on the CPU and the GPU
--------------------------------------------
Number of threads per block in each dimension = 20
Number of blocks per grid in each dimension   = 13
