Iterations        : 25000
Resolution        : 256
Num. Heat sources : 2
   1: (0.00, 0.00) 1.00 2.50 
   2: (0.50, 1.00) 1.00 2.50 

Execution on CPU (sequential)
-----------------------------
Time on CPU in ms.= 5749.587402 (11.464 GFlop => 1993.83 MFlop/s)
Convergence to residual=0.000050: 15902 iterations

Execution on GPU
----------------

Time on GPU in ms. = 7265.421387 (11.464 GFlop => 1577.84 MFlop/s)
Convergence to residual=0.000050: 15902 iterations
