Iterations        : 25000
Resolution        : 256
Num. Heat sources : 2
   1: (0.00, 0.00) 1.00 2.50 
   2: (0.50, 1.00) 1.00 2.50 

Execution on CPU (sequential)
-----------------------------
Time on CPU in ms.= 5699.820312 (11.464 GFlop => 2011.24 MFlop/s)
Convergence to residual=0.000050: 15902 iterations

Execution on GPU
----------------

Time on GPU in ms. = 3980.096680 (11.464 GFlop => 2880.25 MFlop/s)
Convergence to residual=0.000050: 15902 iterations
