Iterations        : 25000
Resolution        : 256
Algorithm         : 0 (Jacobi)
Num. Heat sources : 2
   1: (0.00, 0.00) 1.00 2.50 
   2: (0.50, 1.00) 1.00 2.50 
Time: 5.647 (11.463 GFlop => 2030.03 MFlop/s)
Convergence to residual=0.000050: 15901 iterations
